{
    "data": [
        {
            "Id": "QlbhReYNzv3Ta1pUn6zB",
            "AccountCurrency": "DO",
            "AccountNumber": "526412533",
            "BankCode": "BU",
            "BankName": "Banco Union",
            "Active": true
        },
        {
            "Id": "XZci5brQGQjqTKQgVJCy",
            "AccountCurrency": "BO",
            "AccountNumber": "6589658965",
            "BankCode": "FIE",
            "BankName": "Banco FIE",
            "Active": false
        }

    ]
}